<?xml version="1.0" encoding="utf-8"?>
<!-- Generator: Adobe Illustrator 16.0.0, SVG Export Plug-In . SVG Version: 6.00 Build 0)  -->
<!DOCTYPE svg PUBLIC "-//W3C//DTD SVG 1.1//EN" "http://www.w3.org/Graphics/SVG/1.1/DTD/svg11.dtd">
<svg version="1.1"
	 id="svg2" xmlns:svg="http://www.w3.org/2000/svg" xmlns:rdf="http://www.w3.org/1999/02/22-rdf-syntax-ns#" xmlns:cc="http://creativecommons.org/ns#" xmlns:dc="http://purl.org/dc/elements/1.1/"
	 xmlns="http://www.w3.org/2000/svg" xmlns:xlink="http://www.w3.org/1999/xlink" x="0px" y="0px" width="34.133px"
	 height="34.133px" viewBox="0 0 34.133 34.133" enable-background="new 0 0 34.133 34.133" xml:space="preserve">
<g id="g10" transform="matrix(1.3333333,0,0,-1.3333333,0,34.133333)" display="none">
	<g id="g12" transform="scale(0.1)" display="inline">
		<path id="path14" fill="#78909c" d="M197.653,162.343c-1.479-1.487-3.472-2.344-5.625-2.344c-2.161,0-4.146,0.857-5.75,2.461
			l-23.086,22.192c-2.996,3.01-7.031,4.688-11.294,4.688c-4.241,0-8.276-1.677-11.25-4.651c-3.032-3.01-4.709-7.068-4.709-11.367
			v-69.338c0-3.713-2.629-6.709-6.021-7.603c-0.623-0.168-1.252-0.352-1.912-0.352c-0.198,0-0.388,0.066-0.586,0.103
			c-4.065,0.352-7.31,3.669-7.31,7.852v69.338c0,4.336-1.677,8.357-4.724,11.367c-3.01,2.974-7.031,4.651-11.25,4.651
			c-4.299,0-8.32-1.677-11.213-4.57l-23.276-22.427c-1.487-1.487-3.516-2.344-5.625-2.344c-2.153,0-4.146,0.857-5.669,2.344
			c-3.003,3.047-3.083,8.247,0.117,11.404l60.315,62.424c0.19,0.234,0.388,0.432,0.549,0.667c2.38,2.029,5.391,3.164,8.591,3.164
			c3.552,0,6.907-1.406,9.338-3.831l60.388-62.498C200.693,170.656,200.693,165.354,197.653,162.343z M148.661,247.421
			c-5.537,5.508-12.891,8.591-20.735,8.591c-7.815,0-15.154-3.083-20.706-8.591c-0.352-0.352-0.659-0.74-0.938-1.091l-59.253-61.37
			c-9.067-9.06-9.067-24.88,0-33.911c4.526-4.526,10.547-7.031,16.948-7.031c6.445,0,12.466,2.505,16.875,6.921l23.247,22.383
			v-69.338h-0.081c0-13.206,10.745-23.987,23.987-23.987c13.228,0,23.972,10.781,23.972,23.987h-0.081l0.125,69.258l23.005-22.192
			c4.57-4.526,10.598-7.031,17-7.031c6.409,0,12.415,2.505,16.948,7.002c4.541,4.534,7.039,10.583,7.039,16.992
			c0,6.394-2.498,12.415-6.914,16.868L148.661,247.421z M240.002,24.025c0-4.417-3.596-8.013-8.013-8.013H23.981
			c-4.409,0-7.961,3.596-7.961,8.013V88.01c0,8.826,7.141,16.011,15.974,16.011c8.826,0,16.011-7.185,16.011-16.011V72.028
			c0-13.242,10.745-24.023,23.987-24.023h111.995c13.242,0,24.023,10.781,24.023,24.023V88.01c0,8.826,7.148,16.011,15.974,16.011
			s16.018-7.185,16.018-16.011V24.025z M223.984,120.002c-17.615,0-31.992-14.341-31.992-31.992V72.028
			c0-4.409-3.596-8.005-8.005-8.005H71.991c-4.417,0-8.013,3.596-8.013,8.005V88.01c0,17.651-14.333,31.992-31.985,31.992
			S0.002,105.661,0.002,88.01V24.025c0-13.242,10.781-24.023,23.979-24.023h208.008c13.242,0,24.023,10.781,24.023,24.023V88.01
			C256.012,105.661,241.642,120.002,223.984,120.002L223.984,120.002"/>
	</g>
</g>
<g>
	<path fill="#231F20" d="M32.11,33.543c2.067,0,0.773-2.77,0-4.158L18.992,3.037c-1.144-1.143-3.015-1.143-4.159,0.001L1.717,29.385
		c-0.858,1.523-2.046,4.158,0,4.158H32.11z M3.102,31.573c-0.777,0-0.282-0.738,0-1.387L16.22,4.424
		c0.382-0.382,1.005-0.382,1.386,0l13.119,25.763c0.39,0.701,0.772,1.389-0.002,1.389L3.102,31.573z"/>
	<circle fill="#231F20" cx="2.746" cy="31.387" r="2.745"/>
	<circle fill="#231F20" cx="16.905" cy="4.216" r="2.745"/>
	<circle fill="#231F20" cx="31.346" cy="31.387" r="2.745"/>
</g>
</svg>
